%YAML 1.1
%TAG !u! tag:unity3d.com,2011:
--- !u!114 &11400000
MonoBehaviour:
  m_ObjectHideFlags: 0
  m_CorrespondingSourceObject: {fileID: 0}
  m_PrefabInstance: {fileID: 0}
  m_PrefabAsset: {fileID: 0}
  m_GameObject: {fileID: 0}
  m_Enabled: 1
  m_EditorHideFlags: 0
  m_Script: {fileID: 11500000, guid: bc90089d334a2594f8fc6bf477db9d87, type: 3}
  m_Name: FireBody
  m_EditorClassIdentifier: 
  element: 4
  skin: 3
  mesh: {fileID: -2432090755550338912, guid: 48383afa57faf484e96473d411d5038d, type: 3}
  mat: {fileID: 2100000, guid: 1ef8eeb5c2b8f5a41b99d4b1fafef174, type: 2}
