%YAML 1.1
%TAG !u! tag:unity3d.com,2011:
--- !u!114 &11400000
MonoBehaviour:
  m_ObjectHideFlags: 0
  m_CorrespondingSourceObject: {fileID: 0}
  m_PrefabInstance: {fileID: 0}
  m_PrefabAsset: {fileID: 0}
  m_GameObject: {fileID: 0}
  m_Enabled: 1
  m_EditorHideFlags: 0
  m_Script: {fileID: 11500000, guid: 5c412e8ce746b8e43af96ecf2c7afb97, type: 3}
  m_Name: Hend_Flex
  m_EditorClassIdentifier: 
  objMaterial: {fileID: 2100000, guid: 26effbb08e8f13e40bc4e8307e837da0, type: 2}
  objMesh: {fileID: -2432090755550338912, guid: 417dede6f9b4fb1439b963d2f0893fb9, type: 3}
  rotate: {x: 0, y: 0, z: 0, w: 0}
  mainPos: {x: 0, y: -1.8, z: 0}
  pivot_Forward: -1
  pivot_Top: 1
  pivot_Right: 0
