%YAML 1.1
%TAG !u! tag:unity3d.com,2011:
--- !u!114 &11400000
MonoBehaviour:
  m_ObjectHideFlags: 0
  m_CorrespondingSourceObject: {fileID: 0}
  m_PrefabInstance: {fileID: 0}
  m_PrefabAsset: {fileID: 0}
  m_GameObject: {fileID: 0}
  m_Enabled: 1
  m_EditorHideFlags: 0
  m_Script: {fileID: 11500000, guid: 5c412e8ce746b8e43af96ecf2c7afb97, type: 3}
  m_Name: Enemy1
  m_EditorClassIdentifier: 
  objMaterial: {fileID: 2100000, guid: 71afbbaea82ff4d4f9e387a2f8e8da1c, type: 2}
  objMesh: {fileID: -2432090755550338912, guid: ac69f68fd6143f14483266f491a3a49f, type: 3}
  rotate: {x: 0, y: 0, z: 0, w: 0}
  mainPos: {x: 0, y: 0, z: 0}
  pivot_Forward: 0
  pivot_Top: 0
  pivot_Right: 0
