%YAML 1.1
%TAG !u! tag:unity3d.com,2011:
--- !u!114 &11400000
MonoBehaviour:
  m_ObjectHideFlags: 0
  m_CorrespondingSourceObject: {fileID: 0}
  m_PrefabInstance: {fileID: 0}
  m_PrefabAsset: {fileID: 0}
  m_GameObject: {fileID: 0}
  m_Enabled: 1
  m_EditorHideFlags: 0
  m_Script: {fileID: 11500000, guid: 5c412e8ce746b8e43af96ecf2c7afb97, type: 3}
  m_Name: Walk_RightLeg
  m_EditorClassIdentifier: 
  objMaterial: {fileID: 2100000, guid: 95d7461eed9f2be4f9b52c393ccb4702, type: 2}
  objMesh: {fileID: -2432090755550338912, guid: 96b4321c42764cb44aac208a22bb2a26, type: 3}
  rotate: {x: 0, y: 0, z: 0, w: 0}
  mainPos: {x: 0, y: 0, z: 0}
  pivot_Forward: 1
  pivot_Top: 0
  pivot_Right: 0
